<?xml version="1.0" encoding="UTF-8" standalone="no"?>
<!-- Created with Inkscape (http://www.inkscape.org/) -->

<svg
   xmlns:dc="http://purl.org/dc/elements/1.1/"
   xmlns:cc="http://creativecommons.org/ns#"
   xmlns:rdf="http://www.w3.org/1999/02/22-rdf-syntax-ns#"
   xmlns:svg="http://www.w3.org/2000/svg"
   xmlns="http://www.w3.org/2000/svg"
   xmlns:sodipodi="http://sodipodi.sourceforge.net/DTD/sodipodi-0.dtd"
   xmlns:inkscape="http://www.inkscape.org/namespaces/inkscape"
   width="32.699944mm"
   height="54.268394mm"
   viewBox="0 0 115.86594 192.28958"
   id="svg4353"
   version="1.1"
   inkscape:version="0.91 r13725"
   sodipodi:docname="help_question_mark.svg">
  <defs
     id="defs4355" />
  <sodipodi:namedview
     id="base"
     pagecolor="#ffffff"
     bordercolor="#666666"
     borderopacity="1.0"
     inkscape:pageopacity="0.0"
     inkscape:pageshadow="2"
     inkscape:zoom="1"
     inkscape:cx="234.47004"
     inkscape:cy="85.684023"
     inkscape:document-units="px"
     inkscape:current-layer="layer1"
     showgrid="false"
     fit-margin-top="0.2"
     fit-margin-left="0.2"
     fit-margin-right="0.2"
     fit-margin-bottom="0.2"
     inkscape:window-width="1920"
     inkscape:window-height="1058"
     inkscape:window-x="-8"
     inkscape:window-y="-8"
     inkscape:window-maximized="1" />
  <metadata
     id="metadata4358">
    <rdf:RDF>
      <cc:Work
         rdf:about="">
        <dc:format>image/svg+xml</dc:format>
        <dc:type
           rdf:resource="http://purl.org/dc/dcmitype/StillImage" />
        <dc:title></dc:title>
      </cc:Work>
    </rdf:RDF>
  </metadata>
  <g
     inkscape:label="Layer 1"
     inkscape:groupmode="layer"
     id="layer1"
     transform="translate(-53.495607,-99.074549)">
    <path
       sodipodi:nodetypes="ccccccccssscccccccc"
       style="fill:#e9afdd;fill-opacity:1;fill-rule:evenodd;stroke:none;stroke-width:1px;stroke-linecap:butt;stroke-linejoin:miter;stroke-opacity:1"
       d="m 55.03912,132.27512 0.0563,0.0323 -0.11396,0.19838 c -1.59632,2.76489 -0.65588,6.27557 2.10902,7.87188 l 21.65858,14.50358 c 2.7649,1.59631 6.27557,0.65587 7.87189,-2.10903 15.34588,-26.57984 41.24158,-13.7961 41.24158,2.61422 0,30.86066 -40.90023,46.92858 -41.39521,73.31817 0,3.19263 2.57024,5.76287 5.76287,5.76287 l 29.6374,0 c 3.19263,0 5.04619,-3.14246 5.76287,-5.76287 4.33262,-15.84139 40.34036,-38.92048 41.02242,-73.31814 -4.2e-4,-33.05007 -34.7366,-55.60354 -55.60469,-55.60327 -32.09849,0 -49.1871,16.96064 -58.00907,32.49191 z m 52.00905,113.51272 c -12.38981,1.1e-4 -22.43371,10.04401 -22.43382,22.43382 1.1e-4,12.38981 10.04401,22.43371 22.43382,22.43382 12.39036,6.7e-4 22.43512,-10.04346 22.43523,-22.43382 -1.1e-4,-12.39036 -10.04487,-22.43449 -22.43523,-22.43382 z"
       id="path4321-4"
       inkscape:connector-curvature="0" />
  </g>
</svg>
