<?xml version="1.0" encoding="UTF-8" standalone="no"?>
<svg
   xmlns:dc="http://purl.org/dc/elements/1.1/"
   xmlns:cc="http://creativecommons.org/ns#"
   xmlns:rdf="http://www.w3.org/1999/02/22-rdf-syntax-ns#"
   xmlns:svg="http://www.w3.org/2000/svg"
   xmlns="http://www.w3.org/2000/svg"
   xmlns:sodipodi="http://sodipodi.sourceforge.net/DTD/sodipodi-0.dtd"
   xmlns:inkscape="http://www.inkscape.org/namespaces/inkscape"
   version="1.1"
   width="32"
   height="32"
   data-icon="people"
   data-container-transform="translate(0 8)"
   viewBox="0 0 32 32"
   id="svg2"
   inkscape:version="0.91 r13725"
   sodipodi:docname="new_tab.svg"
   inkscape:export-filename="C:\Users\wilkie\occam\authors.png"
   inkscape:export-xdpi="56.25"
   inkscape:export-ydpi="56.25">
  <metadata
     id="metadata10">
    <rdf:RDF>
      <cc:Work
         rdf:about="">
        <dc:format>image/svg+xml</dc:format>
        <dc:type
           rdf:resource="http://purl.org/dc/dcmitype/StillImage" />
        <dc:title></dc:title>
      </cc:Work>
    </rdf:RDF>
  </metadata>
  <defs
     id="defs8" />
  <sodipodi:namedview
     pagecolor="#ffffff"
     bordercolor="#666666"
     borderopacity="1"
     objecttolerance="10"
     gridtolerance="10"
     guidetolerance="10"
     inkscape:pageopacity="0"
     inkscape:pageshadow="2"
     inkscape:window-width="944"
     inkscape:window-height="1042"
     id="namedview6"
     showgrid="false"
     inkscape:zoom="8"
     inkscape:cx="14.4791"
     inkscape:cy="1.2738424"
     inkscape:window-x="0"
     inkscape:window-y="0"
     inkscape:window-maximized="0"
     inkscape:current-layer="svg2"
     showguides="false" />
  <path
     style="fill:#6aa3ae;fill-opacity:1;stroke:none;stroke-linejoin:miter"
     d="M 16 0.203125 A 15.79661 15.79661 0 0 0 0.203125 16 L 7.796875 16 L 7.796875 12.464844 C 7.796875 10.085085 9.7120382 8.1699219 12.091797 8.1699219 L 19.908203 8.1699219 C 22.287962 8.1699219 24.203125 10.085085 24.203125 12.464844 L 24.203125 16 L 31.796875 16 A 15.79661 15.79661 0 0 0 16 0.203125 z "
     id="circle4720" />
  <path
     style="fill:#6aa3ae;fill-opacity:1;stroke:none;stroke-linejoin:miter"
     d="M 16 0.203125 A 15.79661 15.79661 0 0 0 0.203125 16 A 15.79661 15.79661 0 0 0 16 31.796875 A 15.79661 15.79661 0 0 0 31.796875 16 A 15.79661 15.79661 0 0 0 16 0.203125 z M 16 2.5078125 A 13.491525 13.491525 0 0 1 29.492188 16 A 13.491525 13.491525 0 0 1 16 29.492188 A 13.491525 13.491525 0 0 1 2.5078125 16 A 13.491525 13.491525 0 0 1 16 2.5078125 z "
     id="path4697" />
  <rect
     style="fill:#6aa3ae;fill-opacity:1;stroke:none;stroke-linejoin:miter"
     id="rect4731"
     width="11.689042"
     height="2.6872916"
     x="10.155479"
     y="18.718594"
     ry="1.3436458" />
  <rect
     ry="1.3436458"
     y="-17.343647"
     x="14.217718"
     height="2.6872916"
     width="11.689042"
     id="rect4748"
     style="fill:#6aa3ae;fill-opacity:1;stroke:none;stroke-linejoin:miter"
     transform="matrix(0,1,-1,0,0,0)" />
</svg>
