<?xml version="1.0" encoding="UTF-8" standalone="no"?>
<svg
   xmlns:dc="http://purl.org/dc/elements/1.1/"
   xmlns:cc="http://creativecommons.org/ns#"
   xmlns:rdf="http://www.w3.org/1999/02/22-rdf-syntax-ns#"
   xmlns:svg="http://www.w3.org/2000/svg"
   xmlns="http://www.w3.org/2000/svg"
   xmlns:sodipodi="http://sodipodi.sourceforge.net/DTD/sodipodi-0.dtd"
   xmlns:inkscape="http://www.inkscape.org/namespaces/inkscape"
   version="1.1"
   id="Layer_1"
   x="0px"
   y="0px"
   width="100px"
   height="100px"
   viewBox="0 0 100 100"
   enable-background="new 0 0 100 100"
   xml:space="preserve"
   inkscape:version="0.91 r13725"
   sodipodi:docname="workflowItemView.svg"
   inkscape:export-filename="Z:\projects\occam\UI\workflowItemView.png"
   inkscape:export-xdpi="13.5"
   inkscape:export-ydpi="13.5"><metadata
     id="metadata109"><rdf:RDF><cc:Work
         rdf:about=""><dc:format>image/svg+xml</dc:format><dc:type
           rdf:resource="http://purl.org/dc/dcmitype/StillImage" /><dc:title></dc:title></cc:Work></rdf:RDF></metadata><defs
     id="defs107" /><sodipodi:namedview
     pagecolor="#ffffff"
     bordercolor="#666666"
     borderopacity="1"
     objecttolerance="10"
     gridtolerance="10"
     guidetolerance="10"
     inkscape:pageopacity="0"
     inkscape:pageshadow="2"
     inkscape:window-width="690"
     inkscape:window-height="480"
     id="namedview105"
     showgrid="false"
     inkscape:zoom="2.36"
     inkscape:cx="50"
     inkscape:cy="50"
     inkscape:window-x="327"
     inkscape:window-y="239"
     inkscape:window-maximized="0"
     inkscape:current-layer="Layer_1" /><path
     d="M48.064,48.306c-10.679,10.68-28.055,10.679-38.735,0C-1.348,37.627-1.348,20.25,9.33,9.572  c10.679-10.679,28.056-10.679,38.733,0C58.743,20.25,58.744,37.627,48.064,48.306z M14.121,14.362  c-8.038,8.039-8.038,21.116,0,29.153c8.037,8.039,21.116,8.039,29.153,0c8.038-8.037,8.038-21.116-0.001-29.153  C35.236,6.325,22.159,6.325,14.121,14.362z"
     id="path97"
     style="fill:#808080" /><rect
     x="47.826"
     y="48.895"
     transform="matrix(0.7072 -0.707 0.707 0.7072 -21.4378 51.4074)"
     width="7.036"
     height="5.38"
     id="rect99"
     style="fill:#808080" /><path
     d="M59.842,53.205c1.05,1.051,1.05,2.754,0,3.804l-3.073,3.075c-1.051,1.048-2.755,1.049-3.804,0l0,0  c-1.051-1.051-1.051-2.755,0-3.805l3.072-3.074C57.089,52.155,58.792,52.156,59.842,53.205L59.842,53.205z"
     id="path101"
     style="fill:#808080" /><path
     d="M76.085,71.426c-3.731-3.731-7.572-10.206-9.29-11.926c-1.72-1.717-4.646-2.45-4.646-2.45l-2.633,2.635l-0.073,0.073  l-2.635,2.634c0,0,0.733,2.926,2.452,4.644c1.719,1.719,8.192,5.561,11.924,9.292c5.853,5.852,12.729,17.703,15.617,20.593  c0.951,0.951,5.195,3.804,9.438-0.438l-0.144-0.144l0.145,0.144c4.243-4.245,1.391-8.487,0.439-9.438  C93.788,84.153,81.938,77.278,76.085,71.426z"
     id="path103"
     style="fill:#808080" /></svg>